…
```r
stevens_gse_lst$merged_metadata
```

```
## # A tibble: 683 x 96
##    sample gse_channel gse_channel_cou… gse_contact_add… gse_contact_city
##    <chr>  <chr>       <chr>            <chr>            <chr>           
##  1 GSM13… 1           1                Westplein 11     rotterdam       
##  2 GSM13… 1           1                Westplein 11     rotterdam       
##  3 GSM13… 1           1                Westplein 11     rotterdam       
##  4 GSM13… 1           1                Westplein 11     rotterdam       
##  5 GSM13… 1           1                Westplein 11     rotterdam       
##  6 GSM13… 1           1                Westplein 11     rotterdam       
##  7 GSM13… 1           1                Westplein 11     rotterdam       
##  8 GSM13… 1           1                Westplein 11     rotterdam       
##  9 GSM13… 1           1                Westplein 11     rotterdam       
## 10 GSM13… 1           1                Westplein 11     rotterdam       
## # … with 673 more rows, and 91 more variables: gse_contact_country <chr>,
## #   gse_contact_email <chr>, gse_contact_institute <chr>,
## #   gse_contact_name <chr>, `gse_contact_zip/postal_code` <chr>,
## #   gse_data_processing <chr>, gse_data_row_count <chr>, gse_description <chr>,
## #   gse_extract_protocol <chr>, gse_hyb_protocol <chr>, gse_label <chr>,
## #   gse_label_protocol <chr>, gse_last_update_date <chr>, gse_molecule <chr>,
## #   gse_organism <chr>, gse_platform_id <chr>, gse_scan_protocol <chr>,
## #   gse_source_name <chr>, gse_status <chr>, gse_submission_date <chr>,
## #   gse_supplementary_file <chr>, gse_taxid <chr>, gse_title <chr>,
…
